{
  "routes": [
    {
      "method": "GET",
      "path": "/portadors",
      "handler": "portador.find",
      "config": {
        "policies": []
      }
    },
    {
      "method": "GET",
      "path": "/portadors/count",
      "handler": "portador.count",
      "config": {
        "policies": []
      }
    },
    {
      "method": "GET",
      "path": "/portadors/:id",
      "handler": "portador.findOne",
      "config": {
        "policies": []
      }
    },
    {
      "method": "POST",
      "path": "/portadors",
      "handler": "portador.create",
      "config": {
        "policies": []
      }
    },
    {
      "method": "PUT",
      "path": "/portadors/:id",
      "handler": "portador.update",
      "config": {
        "policies": []
      }
    },
    {
      "method": "DELETE",
      "path": "/portadors/:id",
      "handler": "portador.delete",
      "config": {
        "policies": []
      }
    }
  ]
}
